[{
  "id": 1,
  "fecha": "3/19/2019",
  "importe": 34,
  "latitude": 32.317865,
  "longitud": 118.36525
}, {
  "id": 2,
  "fecha": "1/10/2019",
  "importe": 99,
  "latitude": -34.5499678,
  "longitud": -58.5497795
}, {
  "id": 3,
  "fecha": "1/9/2019",
  "importe": 73,
  "latitude": "-7.051",
  "longitud": "112.4232"
}, {
  "id": 4,
  "fecha": "6/23/2019",
  "importe": 29,
  "latitude": -6.2258,
  "longitud": 106.7987
}, {
  "id": 5,
  "fecha": "12/29/2018",
  "importe": 82,
  "latitude": 16.6714164,
  "longitud": 99.2823264
}, {
  "id": 6,
  "fecha": "7/27/2019",
  "importe": 15,
  "latitude": 37.5165459,
  "longitud": 140.9330205
}, {
  "id": 7,
  "fecha": "8/25/2019",
  "importe": 2,
  "latitude": 40.4304275,
  "longitud": 50.0347608
}, {
  "id": 8,
  "fecha": "4/13/2019",
  "importe": 93,
  "latitude": 28.2412186,
  "longitud": 112.9513185
}, {
  "id": 9,
  "fecha": "12/13/2018",
  "importe": 2,
  "latitude": 61.3294177,
  "longitud": 29.1257738
}, {
  "id": 10,
  "fecha": "6/11/2019",
  "importe": 28,
  "latitude": 44.0207262,
  "longitud": 20.4633133
}, {
  "id": 11,
  "fecha": "11/29/2018",
  "importe": 1,
  "latitude": -8.5066242,
  "longitud": 122.9719348
}, {
  "id": 12,
  "fecha": "10/23/2018",
  "importe": 65,
  "latitude": 55.3238424,
  "longitud": 38.6815132
}, {
  "id": 13,
  "fecha": "1/17/2019",
  "importe": 30,
  "latitude": 43.7441795,
  "longitud": 2.511999
}, {
  "id": 14,
  "fecha": "2/11/2019",
  "importe": 8,
  "latitude": 42.3604802,
  "longitud": -71.0590624
}, {
  "id": 15,
  "fecha": "9/18/2019",
  "importe": 81,
  "latitude": 51.9166667,
  "longitud": -8.05
}, {
  "id": 16,
  "fecha": "3/15/2019",
  "importe": 18,
  "latitude": 58.1484742,
  "longitud": 14.7352235
}, {
  "id": 17,
  "fecha": "2/14/2019",
  "importe": 87,
  "latitude": "41.65041",
  "longitud": "59.9164"
}, {
  "id": 18,
  "fecha": "5/11/2019",
  "importe": 65,
  "latitude": 37.3420459,
  "longitud": 140.5649671
}, {
  "id": 19,
  "fecha": "10/9/2018",
  "importe": 48,
  "latitude": -0.3221142,
  "longitud": 103.1517902
}, {
  "id": 20,
  "fecha": "1/10/2019",
  "importe": 47,
  "latitude": 49.666675,
  "longitud": 19.2774975
}]
